Ionel;Pacuraru;1234567890876;ASISTENT;2500;0
Mihai;Dumitrescu;1244567890876;LECTURER;2500;1
Ionela;Ionescu;1235567890876;LECTURER;2500;2
Mihaela;Pacuraru;1234567890876;ASISTENT;2600;3
Vasile;Georgescu;1234567890876;TEACHER;2700;4
Marin;Puscas;1234567890876;TEACHER;2800;5
ana;pop;1234567891234;ASISTENT;100.0;6
con;lor;1234567891234;ASISTENT;101.0;7
costi;ionica;1234567891234;CONFERENTIAR;99.0;8
Ana;Ionescu;1234567891234;ASISTENT;1000.0;9
rqwsa;adasd;1234567891234;ASISTENT;5465.0;10
